<svg xmlns="http://www.w3.org/2000/svg" viewBox="0 0 32 32">
    <path fill="#00000" d="M0 0h32v32H0z"/>
    <foreignObject fill="#0000" font-size="24" font-family="serif" x="1" y="1" width="32" height="32" color="#fff">
        <p xmlns="http://www.w3.org/1999/xhtml" style="line-height:1em;margin:0">$_</p>
    </foreignObject>
</svg>

